{
  "type": "service_account",
  "project_id": "intelihogardb",
  "private_key_id": "2fd7164ae91e77127111ed435408a7b7f0e34e84",
  "private_key": "-----BEGIN PRIVATE KEY-----\nMIIEvwIBADANBgkqhkiG9w0BAQEFAASCBKkwggSlAgEAAoIBAQCn4yj5vxSi3tMO\nzLORokJ0I2O0LI9lEosu6BitXuzeVJtTIAjdaeglHljr/AcNH8z/qkjtz81koss2\niPO52L6JEQaNXzZaSNjxQ2LZvx4LCdqhipsaAW1ksR9WRhBXcEvGWMzH3m12ZuwH\ndRIFM6XEH65WHx9/vds1sWT3jGox/GEkHBrAJTl3IL2GEQGdgKX3M2RFJVJ7scbn\nusCFIJkKhpjOyu6Ad0sGWGycu3uqIQK2wLLnCuGQo2MO/OMFedPv0tvoHqXPgd6U\nM5U5KfFYQ1QTVdDes20KAr61c2i9jugkZJTUn6Ip78lsccjjmW3JsrDP1cOIDbUH\nTWElMv/XAgMBAAECggEALMcODTp1HxGOOlLHjA66aa5sr8f4wOzmuW6G8mqwg4YO\nXWfcZW2TUJ8c+WfhW5NBQmlhBSiY7//pclSpqMZR303usPMVlJP8ZLDj4w6xzSDm\nMpK81n1N9360THboceHOHAtgJujAykUeK8kCMuf5DOukPG0VoiT5nAMB2nKVeloW\n1w68gHIgcF/xtAnyRmoQ33BVWgM3cBIrSvlE1xRQjguBJ8T2zxS4YMD63lpmC/VN\nusFG9Dl/9ICCquzYsd5FPCpCg+ErplKT/leo/5uGwgy5I+a998aF6yeVUq4f4HrQ\nNQOeNTrMdwrRkaApigpsyF6YdAVgvZffR27iVeo2zQKBgQDSYLYacD3h/oHItlsj\niyjuIgxxIITaYmYDMhNY0ylONCYtGHBWkmoMn11wfxfzg3To5hf3H2zKTvsEWXuw\nCdnPhNO6GFKZlr4Y+Ik29SwFcOesKUTaPHnkhZX+dPffdFat7YecFaTo9Yvp1maq\nKJ3GGrz+ExfK/wQBLNLQN4CECwKBgQDMS48EBauAPM86O3xznSg9YS8rSiuPcnyj\np8L01pmaBYcXATa5lcnwnoMDNs22h2M00EkZ5ocsywF+ef3XAS0ieNCfNrW6K01O\nKJ79prBnVFoQZwZ8ftGedhgMOQV2Khv82eqno+RbSK9ZOD3SNfiW3abxgdUE9m65\nLDT1V7Hm5QKBgQDBH6rMBnGofryhhlWQAXWndXY6e4G6AE5pbJS6G851TgYlq6Ok\ntW/I+psKZIGWN/0gt+kUILL73Rkt2v9ikQh0Khk7YoyhFfKYdb9wxgyNSiJCtvfP\n52h2UfNpzfKmHORdcgnlTTE/8floxjskxXhgnbcU/m3/Ga+RbJZyMiE2FQKBgQCk\nQ3C35DM0hjB9ew0jDM8pIzZBEX8a9QwArshUAyU4MY+gUKqG6EiZ/2oKMIuRYyTC\nd2L/v1sbChOmdUJEGT8IQ6pDCkNucJjU6laETv3x52IPZDdT7MhxKDVHxqV8kHk2\ngqVpq57WQwgyrcUPe7Po4kn0T9dPCTKYE1J1ntB9fQKBgQCmb7NJd9xSb3516UHP\np328j3IcziqeTtZAa7y6rdGyeTfyOtbdmqmoplyjUrBzCwkhV3GONi1h0bS3THmB\nWpZqgA2JFNK5lb7RvzXSdWcEjQWlgZrf6tKO0BNkrXz/jXUf9m0HGtyqGU3ZmrRw\n2KDJKRiUkq1p18nAks1QPV69pg==\n-----END PRIVATE KEY-----\n",
  "client_email": "firebase-adminsdk-25d8j@intelihogardb.iam.gserviceaccount.com",
  "client_id": "109891002305641063156",
  "auth_uri": "https://accounts.google.com/o/oauth2/auth",
  "token_uri": "https://oauth2.googleapis.com/token",
  "auth_provider_x509_cert_url": "https://www.googleapis.com/oauth2/v1/certs",
  "client_x509_cert_url": "https://www.googleapis.com/robot/v1/metadata/x509/firebase-adminsdk-25d8j%40intelihogardb.iam.gserviceaccount.com"
}
